graph Gnm_prueba_dijkstra
{
    0[label="235"];
    1[label="1093"];
    2[label="687"];
    3[label="492"];
    4[label="0"];
    5[label="448"];
    6[label="771"];
    7[label="1029"];
    8[label="648"];
    9[label="328"];
    5--7 [label="581"];
    5--8 [label="200"];
    0--4 [label="235"];
    0--6 [label="536"];
    1--5 [label="645"];
    5--2 [label="239"];
    5--3 [label="44"];
    9--0 [label="93"];
    5--4 [label="448"];
}
